Symbol,Name,Industry,Sector,Exchange,Cap mln,Last,Change,Change %,Volume
^NDX,
AAL,American Airlines Group Inc,Major Airlines,Services,NASDAQ,22575,50.27,-1.16,-2.26,7174600
AAPL,Apple Inc,Electronic Equipment,Consumer Goods,NASDAQ,799490,148.98,-6.01,-3.88,64599808
ADBE,Adobe Systems Inc,Application Software,Technology,NASDAQ,67694,138.05,-4.58,-3.21,4144890
ADI,Analog Devices Inc,Semiconductor - Integrated Circuits,Technology,NASDAQ,28707,78.60,-3.84,-4.66,4940887
ADP,Automatic Data Processing Inc,Business Software & Services,Technology,NASDAQ,43475,100.11,-0.66,-0.65,4273958
ADSK,Autodesk Inc,Technical & System Software,Technology,NASDAQ,21018,105.95,-5.17,-4.65,3018232
AKAM,Akamai Technologies Inc,Internet Information Providers,Technology,NASDAQ,8545,48.13,-0.78,-1.59,1957434
ALXN,Alexion Pharmaceuticals Inc,Biotechnology,Healthcare,NASDAQ,26965,105.38,2.46,2.39,2972304
AMAT,Applied Materials Inc,Semiconductor Equipment & Materials,Technology,NASDAQ,46908,44.74,-2.69,-5.67,20471376
AMGN,Amgen Inc,Biotechnology,Healthcare,NASDAQ,117826,164.06,1.41,0.87,4076226
AMZN,Amazon.com Inc,Catalog & Mail Order Houses,Services,NASDAQ,459502,978.31,-31.96,-3.16,7624869
ATVI,Activision Blizzard Inc,Multimedia & Graphics Software,Technology,NASDAQ,42213,58.03,-2.52,-4.16,12884464
AVGO,Broadcom Ltd,Semiconductor - Broad Line,Technology,NASDAQ,94705,243.34,-11.61,-4.55,5814527
BIDU,Baidu Inc,Internet Information Providers,Technology,NASDAQ,64880,181.07,-4.68,-2.52,4070400
BIIB,Biogen Inc,Biotechnology,Healthcare,NASDAQ,54055,259.89,2.72,1.06,1575798
BMRN,Biomarin Pharmaceutical Inc,Biotechnology,Healthcare,NASDAQ,15678,90.23,0.24,0.27,1202059
CA,CA Inc,Business Software & Services,Technology,NASDAQ,13212,31.71,-0.26,-0.81,3547657
CELG,Celgene Corp,Biotechnology,Healthcare,NASDAQ,93168,118.19,1.13,0.97,4561555
CERN,Cerner Corp,Healthcare Information Services,Technology,NASDAQ,21266,66.28,-1.83,-2.69,2148736
CHKP,Check Point Software Technologies Ltd,Security Software & Services,Technology,NASDAQ,17859,110.80,-4.67,-4.04,1338728
CHTR,Charter Communications Inc,CATV Systems,Services,NASDAQ,86147,332.84,-4.61,-1.37,1437006
CMCSA,Comcast Corp,Entertainment - Diversified,Services,NASDAQ,184881,40.69,-0.25,-0.61,20393315
COST,Costco Wholesale Corp,Discount Variety Stores,Services,NASDAQ,75006,180.38,-1.03,-0.57,2166734
CSCO,Cisco Systems Inc,Networking & Communication Devices,Technology,NASDAQ,171419,31.37,-0.24,-0.76,25333821
CSX,CSX Corp,Railroads,Services,NASDAQ,48105,53.05,-0.71,-1.32,8583848
CTAS,Cintas Corp,Business Services,Services,NASDAQ,12881,123.70,0.03,0.02,411129
CTRP,Ctrip.Com International Ltd,Lodging,Services,NASDAQ,28398,55.83,-2.19,-3.77,6310678
CTSH,Cognizant Technology Solutions Corp,Business Software & Services,Technology,NASDAQ,37926,66.31,-0.56,-0.84,4296053
CTXS,Citrix Systems Inc,Business Software & Services,Technology,NASDAQ,12987,78.32,-4.89,-5.88,2885874
DISCA,Discovery Communications Inc,CATV Systems,Services,NASDAQ,9844,26.10,0.03,0.12,4043132
DISCK,Discovery Communications Inc,Entertainment - Diversified,Services,NASDAQ,9844,25.27,-0.01,-0.04,2739284
DISH,DISH Network Corp,CATV Systems,Services,NASDAQ,28658,65.02,1.05,1.64,4855759
DLTR,Dollar Tree Inc,Discount Variety Stores,Services,NASDAQ,19230,75.38,0.54,0.72,2248449
EA,Electronic Arts Inc,Multimedia & Graphics Software,Technology,NASDAQ,33629,110.46,-3.83,-3.35,5728380
EBAY,eBay Inc,Catalog & Mail Order Houses,Services,NASDAQ,36994,34.94,-1.20,-3.32,11051942
ESRX,Express Scripts Holding Co,Health Care Plans,Healthcare,NASDAQ,35802,61.41,1.05,1.74,3139739
EXPE,Expedia Inc,Lodging,Services,NASDAQ,21588,143.59,-5.63,-3.77,2707354
FAST,Fastenal Co,Industrial Equipment Wholesale,Services,NASDAQ,12785,43.52,1.10,2.59,3975427
FB,Facebook Inc,Internet Information Providers,Technology,NASDAQ,435277,149.63,-5.08,-3.28,35481409
FISV,Fiserv Inc,Business Services,Services,NASDAQ,25567,122.86,-0.89,-0.72,823108
FOX,Twenty-First Century Fox Inc,Entertainment - Diversified,Services,NASDAQ,56344,27.70,0.70,2.59,4006158
FOXA,Twenty-First Century Fox Inc,Entertainment - Diversified,Services,NASDAQ,56344,28.18,0.78,2.85,15102050
GILD,Gilead Sciences Inc,Biotechnology,Healthcare,NASDAQ,86179,64.70,0.58,0.90,9313600
GOOG,Alphabet Inc,Internet Information Providers,Technology,NASDAQ,655857,949.83,-33.58,-3.41,3288133
GOOGL,Alphabet Inc,Internet Information Providers,Technology,NASDAQ,652764,970.12,-34.16,-3.40,3625920
HAS,Hasbro Inc,Toys & Games,Consumer Goods,NASDAQ,12662,107.90,-0.61,-0.56,722866
HOLX,Hologic Inc,Medical Appliances & Equipment,Healthcare,NASDAQ,12108,44.67,-0.49,-1.09,1959688
HSIC,Henry Schein Inc,Medical Equipment Wholesale,Services,NASDAQ,13972,185.75,1.57,0.85,564529
IDXX,IDEXX Laboratories Inc,Diagnostic Substances,Healthcare,NASDAQ,14495,164.56,-6.78,-3.96,870738
ILMN,Illumina Inc,Biotechnology,Healthcare,NASDAQ,26341,174.08,-3.61,-2.03,879213
INCY,Incyte Corp,Biotechnology,Healthcare,NASDAQ,24030,119.04,-0.71,-0.59,1410086
INTC,Intel Corp,Semiconductor - Broad Line,Technology,NASDAQ,167782,35.71,-0.77,-2.11,33076290
INTU,Intuit Inc,Application Software,Technology,NASDAQ,32759,140.21,-2.50,-1.75,1890690
ISRG,Intuitive Surgical Inc,Medical Appliances & Equipment,Healthcare,NASDAQ,31339,916.34,-13.51,-1.45,352061
JBHT,J B Hunt Transport Services Inc,Trucking,Services,NASDAQ,9448,88.46,0.26,0.29,880531
JD,JD.com Inc,Internet Information Providers,Technology,NASDAQ,57463,39.00,-2.92,-6.97,23250746
KHC,Kraft Heinz Co,Food - Major Diversified,Consumer Goods,NASDAQ,108917,90.83,-1.74,-1.88,2801841
KLAC,KLA-Tencor Corp,Semiconductor Equipment & Materials,Technology,NASDAQ,15872,101.98,-6.95,-6.38,1888154
LBTYA,Liberty Global PLC,CATV Systems,Services,NASDAQ,30037,29.35,-0.51,-1.71,3201467
LBTYK,Liberty Global PLC,Entertainment - Diversified,Services,NASDAQ,30037,28.24,-0.64,-2.22,4343057
LILA,Liberty Global PLC,Entertainment - Diversified,Services,NASDAQ,30037,20.40,-0.54,-2.58,217267
LRCX,Lam Research Corp,Semiconductor Equipment & Materials,Technology,NASDAQ,24402,157.78,-7.19,-4.36,3832566
LVNTA,Liberty Interactive Corp,Catalog & Mail Order Houses,Services,NASDAQ,15758,52.60,-0.70,-1.31,961050
MAR,Marriott International Inc,Lodging,Services,NASDAQ,39427,102.42,-2.66,-2.53,3629502
MAT,Mattel Inc,Toys & Games,Consumer Goods,NASDAQ,7694,22.27,-0.16,-0.71,5662275
MCHP,Microchip Technology Inc,Semiconductor - Broad Line,Technology,NASDAQ,17343,83.48,-3.38,-3.89,4306811
MDLZ,Mondelez International Inc,Confectioners,Consumer Goods,NASDAQ,69507,45.62,-0.77,-1.66,10745914
MNST,Monster Beverage Corp,Beverages - Soft Drinks,Consumer Goods,NASDAQ,26579,50.05,-0.43,-0.85,2242127
MSFT,Microsoft Corp,Business Software & Services,Technology,NASDAQ,530940,70.32,-1.63,-2.27,48962846
MU,Micron Technology Inc,Semiconductor - Memory Chips,Technology,NASDAQ,32105,30.60,-1.85,-5.70,52997600
MXIM,Maxim Integrated Products Inc,Semiconductor - Broad Line,Technology,NASDAQ,13263,47.08,-2.33,-4.72,2940798
MYL,Mylan NV,Drugs - Generic,Healthcare,NASDAQ,20982,40.09,0.38,0.96,9298426
NCLH,Norwegian Cruise Line Holdings Ltd,,,NASDAQ,11466,51.13,-0.66,-1.27,2220339
NFLX,Netflix Inc,CATV Systems,Services,NASDAQ,68331,158.03,-7.85,-4.73,10271564
NTES,NetEase Inc,Internet Software & Services,Technology,NASDAQ,38511,303.62,-10.02,-3.19,2163786
NVDA,NVIDIA Corp,Semiconductor - Specialized,Technology,NASDAQ,85466,149.60,-10.34,-6.46,92086370
ORLY,O`Reilly Automotive Inc,Auto Parts Stores,Services,NASDAQ,22192,232.84,2.22,0.96,1224177
PAYX,Paychex Inc,Staffing & Outsourcing Services,Services,NASDAQ,21235,58.56,-0.35,-0.59,1880041
PCAR,PACCAR Inc,Trucks & Other Vehicles,Consumer Goods,NASDAQ,22022,64.01,0.04,0.06,1076500
PCLN,Priceline Group Inc,Business Services,Services,NASDAQ,91426,1842.12,-50.26,-2.66,665239
PYPL,PayPal Holdings Inc,Credit Services,Financial,NASDAQ,61492,53.40,-0.99,-1.82,11172931
QCOM,Qualcomm Inc,Communication Equipment,Technology,NASDAQ,84982,57.05,-1.07,-1.84,13598481
QVCA,Liberty Media Corp,,,NASDAQ,,23.79,0.00,0.00,2937257
REGN,Regeneron Pharmaceuticals Inc,Biotechnology,Healthcare,NASDAQ,48380,475.79,-10.11,-2.08,1027214
ROST,Ross Stores Inc,Apparel Stores,Services,NASDAQ,24900,61.96,0.64,1.04,2498304
SBUX,Starbucks Corp,Specialty Eateries,Services,NASDAQ,91665,62.19,-0.05,-0.08,11223045
SHPG,Shire PLC,Pharmaceuticals,Healthcare,NASDAQ,54596,165.02,-2.81,-1.67,1330099
SIRI,Sirius XM Holdings Inc,Broadcasting - Radio,Services,NASDAQ,24678,5.20,-0.20,-3.70,38588619
STX,Seagate Technology PLC,Data Storage Devices,Technology,NASDAQ,12616,42.37,-0.40,-0.94,4756873
SWKS,Skyworks Solutions Inc,Semiconductor - Integrated Circuits,Technology,NASDAQ,19539,107.01,-4.00,-3.60,2967480
SYMC,Symantec Corp,Security Software & Services,Technology,NASDAQ,18010,29.71,-0.40,-1.33,16371439
TMUS,T-Mobile US Inc,Wireless Communications,Technology,NASDAQ,56331,63.84,-1.85,-2.82,6337082
TSCO,Tractor Supply Co,Specialty Retail Other,Services,NASDAQ,7056,57.02,2.58,4.74,3519414
TSLA,Tesla Inc,Auto Manufacturers - Major,Consumer Goods,NASDAQ,53353,357.32,-12.68,-3.43,17236162
TXN,Texas Instruments Inc,Semiconductor - Broad Line,Technology,NASDAQ,80822,80.90,-3.44,-4.08,6810239
ULTA,Ulta Beauty Inc,Personal Services,Services,NASDAQ,18790,307.87,0.60,0.20,511638
VIAB,Viacom Inc,Entertainment - Diversified,Services,NASDAQ,14274,35.40,0.14,0.40,4371958
VOD,Vodafone Group PLC,Wireless Communications,Technology,NASDAQ,79108,28.46,-0.22,-0.77,4264855
VRSK,Verisk Analytics Inc,Business Services,Services,NASDAQ,13318,80.07,-0.31,-0.39,521864
VRTX,Vertex Pharmaceuticals Inc,Biotechnology,Healthcare,NASDAQ,29868,122.66,-3.25,-2.58,1791106
WBA,Walgreens Boots Alliance Inc,Drug Stores,Services,NASDAQ,89827,80.99,-0.48,-0.59,4140417
WDC,Western Digital Corp,Data Storage Devices,Technology,NASDAQ,26655,86.01,-5.01,-5.50,5996055
WYNN,Wynn Resorts Ltd,Resorts & Casinos,Services,NASDAQ,13786,129.59,-5.14,-3.82,3106987
XLNX,Xilinx Inc,Semiconductor - Integrated Circuits,Technology,NASDAQ,16590,65.40,-2.67,-3.92,5294081
XRAY,Dentsply Sirona Inc,Medical Instruments & Supplies,Healthcare,NASDAQ,14774,63.34,-0.11,-0.17,1130642
